<?xml version="1.0" encoding="UTF-8"?>

<!--
SPDX-FileCopyrightText: 2022 Romain Vigier <contact AT romainvigier.fr>

SPDX-License-Identifier: CC-BY-SA-4.0
-->

<svg width="600" height="600" version="1.1" viewBox="0 0 600 600" xmlns="http://www.w3.org/2000/svg">
 <rect width="600" height="600"/>
 <path d="m424 180h-171l-38 152h38l-19 114 152-152h-38z" fill="#f8e45c"/>
</svg>
