<?xml version="1.0" encoding="UTF-8"?>

<!--
SPDX-FileCopyrightText: 2022 Romain Vigier <contact AT romainvigier.fr>

SPDX-License-Identifier: CC-BY-SA-4.0
-->

<svg width="128" height="128" version="1.1" viewBox="0 0 128 128" xmlns="http://www.w3.org/2000/svg" xmlns:xlink="http://www.w3.org/1999/xlink">
 <defs>
  <linearGradient id="shade" x1="0.4" y1="1" x2="0.6" y2="0" gradientUnits="objectBoundingBox">
   <stop stop-color="#f9f06b" offset="0"/>
   <stop stop-color="#f6d32d" offset="1"/>
  </linearGradient>
  <linearGradient id="shadow" x1="0.4" y1="1" x2="0.6" y2="0" gradientUnits="objectBoundingBox">
   <stop stop-color="#f6d32d" offset="0"/>
   <stop stop-color="#e5a50a" offset="1"/>
  </linearGradient>
 </defs>
 <g>
  <path d="m24 120 68-58v-6l-20 8 36-40v-12l-80 62v4l20-2z" fill="url(#shadow)"/>
  <path d="m108 12-46 4-34 58 20-2-24 48 68-64-20 2z" fill="url(#shade)"/>
 </g>
</svg>
